^D:\Documents\School\Gameplay Programming\GPP_Exam2018_v4\Handin\2DAE5_Sercu_Arne_GPP-Exam2018\Source\project\GPP_Exam2018.vcxproj
D:\Documents\School\Gameplay Programming\GPP_Exam2018_v4\Handin\2DAE5_Sercu_Arne_GPP-Exam2018\Source\_DEMO_DEBUG\GPP_Plugin_d.lib
D:\Documents\School\Gameplay Programming\GPP_Exam2018_v4\Handin\2DAE5_Sercu_Arne_GPP-Exam2018\Source\_DEMO_DEBUG\GPP_Plugin_d.exp
